…
I store my data in *tibbles* which is a form of *dataframe* and behaves basically the same with a few cosmetic differences. The main dataset looks as follows:


::: {.cell}

```{.r .cell-code}
metro.panel
```

::: {.cell-output .cell-output-stdout}
```
# A tibble: 4,224 x 12
   metro_code metro_name       year   tfp ln_gva ln_emp_wt ln_cap ln_k_f ln_ck_f
   <chr>      <chr>           <dbl> <dbl>  <dbl>     <dbl>  <dbl>  <dbl>   <dbl>
 1 AT001MC    Wien             2000  2.78  11.4       7.07  11.7    7.17   7.11 
 2 AT002M     Graz             2000  2.69   9.76      5.64   9.93   6.14   5.92 
 3 AT003M     Linz             2000  2.74  10.1       5.93  10.3    6.39   1.79 
 4 AT004M     Salzburg         2000  2.80   9.44      5.21   9.52   5.56   4.15 
 5 AT005M     Innsbruck        2000  2.75   9.16      4.97   9.30   5.06   3.78 
 6 BE001MC    Bruxelles / Br~  2000  3.06  11.4       6.86  11.4    7.53   6.77 
 7 BE002M     Antwerpen        2000  2.96  10.4       5.92  10.5    6.69   7.46 
 8 BE003M     Gent             2000  2.88   9.74      5.41   9.77   6.19   6.32 
 9 BE004M     Charleroi        2000  2.89   9.10      4.82   9.00   5.16   0.554
10 BE005M     Liège            2000  2.80   9.58      5.31   9.72   5.80   1.19 
# i 4,214 more rows
# i 3 more variables: ECI_f_wt <dbl>, tfp_gr_5 <dbl>, tfp_gr_5_pt <dbl>
```
…
